<?xml version="1.0" encoding="UTF-8" standalone="no"?>
<!-- Created with Inkscape (http://www.inkscape.org/) -->

<svg
   xmlns:dc="http://purl.org/dc/elements/1.1/"
   xmlns:cc="http://creativecommons.org/ns#"
   xmlns:rdf="http://www.w3.org/1999/02/22-rdf-syntax-ns#"
   xmlns:svg="http://www.w3.org/2000/svg"
   xmlns="http://www.w3.org/2000/svg"
   xmlns:sodipodi="http://sodipodi.sourceforge.net/DTD/sodipodi-0.dtd"
   xmlns:inkscape="http://www.inkscape.org/namespaces/inkscape"
   width="200mm"
   height="160mm"
   viewBox="0 0 200 160"
   version="1.1"
   id="svg907"
   inkscape:version="0.92.4 (5da689c313, 2019-01-14)"
   sodipodi:docname="homepicture.svg">
  <defs
     id="defs901" />
  <sodipodi:namedview
     id="base"
     pagecolor="#ffffff"
     bordercolor="#666666"
     borderopacity="1.0"
     inkscape:pageopacity="0.0"
     inkscape:pageshadow="2"
     inkscape:zoom="0.98994949"
     inkscape:cx="127.15839"
     inkscape:cy="277.93382"
     inkscape:document-units="mm"
     inkscape:current-layer="g1566"
     showgrid="false"
     inkscape:window-width="1920"
     inkscape:window-height="1017"
     inkscape:window-x="-8"
     inkscape:window-y="-8"
     inkscape:window-maximized="1" />
  <metadata
     id="metadata904">
    <rdf:RDF>
      <cc:Work
         rdf:about="">
        <dc:format>image/svg+xml</dc:format>
        <dc:type
           rdf:resource="http://purl.org/dc/dcmitype/StillImage" />
        <dc:title></dc:title>
      </cc:Work>
    </rdf:RDF>
  </metadata>
  <g
     inkscape:label="Layer 1"
     inkscape:groupmode="layer"
     id="layer1"
     transform="translate(0,-137)">
    <g
       id="g892"
       transform="matrix(0.37629407,0,0,0.40362999,-50.709912,16.011786)"
       inkscape:transform-center-x="48.470682"
       inkscape:transform-center-y="-257.5065">
      <g
         id="g1566"
         inkscape:export-filename="C:\Users\mikha\g1566.png"
         inkscape:export-xdpi="96"
         inkscape:export-ydpi="96">
        <g
           id="g1608"
           transform="translate(-14.084901,219.59434)">
          <polygon
             transform="translate(-32.143048,-9.364423)"
             class="st0"
             points="616.7,113 556.2,102.4 543,98.5 534.8,99.6 527.6,111.8 523.8,284 523.8,293.5 560.8,305 595.1,315.4 623,323.8 645.4,328.8 652,328.8 654,325 657.3,263.7 658.8,265.3 677,251.7 683,248.7 683,244.6 677.4,235.4 675.5,219.8 667.4,195.5 663,172.8 659.9,147.7 659.9,140.8 665.1,135.8 666.8,129.3 663,123.3 "
             id="polygon860"
             style="fill:#ffffff" />
          <polygon
             transform="translate(-32.143048,-9.364423)"
             class="st0"
             points="471.3,164.9 465.8,153.9 460.3,167 466.8,208.4 476.3,210.4 "
             id="polygon862"
             style="fill:#ffffff" />
          <path
             class="st0"
             d="m 374.85695,310.33558 c -1.8,9.6 4.3,55.6 3.4,62.2 -54.6,5.3 -110.5,19.4 -165.1,24.7 -6.1,0.6 -11,-7.5 -17.1,-6.9 -2.9,-52.4 -5.9,-104.8 -8.8,-157.2 l 55.7,-13.5 39.5,-13 c -5.6,10.6 57.4,-15.1 70.8,-7 16.3,9.9 16.9,81.4 21.6,110.7"
             id="path864"
             inkscape:connector-curvature="0"
             style="fill:#ffffff" />
          <path
             class="st1"
             d="m 635.05695,114.53558 c -1.7,-8.3 -120.5,-22.800003 -129,-23.700003 -8.5,-0.8 -9.3,18.800003 -9.3,18.800003 l -1.5,163 v 2 l 114.3,31.4 14.2,-175.5 c 0,0 13,-7.8 11.3,-16 z m -56.2,92.6 h -13.6 c 0,0 0.9,31.9 -1.3,31.9 -2.1,0 -19.2,-1.4 -19.2,-1.4 v -32.6 l -12.5,-6.6 c 0.5,-2.6 0,-31.6 0,-31.6 l 50.9,3.6 z"
             id="path866"
             inkscape:connector-curvature="0"
             style="fill:#e5e723" />
          <g
             transform="translate(-32.143048,-9.364423)"
             id="g890">
            <path
               class="st2"
               d="m 665.1,130.4 c -0.5,-1.2 -0.8,-2.6 -1.5,-3.7 -0.4,-0.8 -1.2,-1 -1.7,0.1 -1,1.9 -1.3,4 -0.9,6.1 0.1,0.7 0.8,1.5 1.5,1.9 0.3,0.2 1.4,-0.6 1.7,-1.2 0.5,-1 0.6,-2.1 0.9,-3.2 z m -6.6,127.9 c -0.1,1.4 -0.3,2.8 -0.3,4.2 0,0.4 0.4,0.8 0.6,1.2 l 1.2,-0.6 c 1.7,-1.6 3.4,-3.2 5.2,-4.7 3,-2.5 5.9,-5.1 9.6,-6.5 0.3,-0.1 0.4,-0.5 0.7,-0.8 -0.4,-0.1 -0.7,-0.2 -1.1,-0.2 -1.1,0 -2.2,0.1 -3.3,0 -3.6,-0.6 -7.2,-1.3 -10.7,-2.1 -1.3,-0.3 -1.9,0 -1.8,1.4 0,2.7 -0.1,5.4 -0.1,8.1 z m 8,-65 c -0.8,-3.7 -1.8,-7.4 -2.6,-11.1 -0.4,-2.1 -0.5,-4.3 -0.8,-6.5 -0.1,-0.4 -0.3,-0.8 -0.4,-1.2 -0.1,0.5 -0.3,0.9 -0.4,1.4 -0.1,0.2 0,0.5 0,0.7 -0.3,5.8 -0.6,11.6 -1,17.4 -0.2,3.3 -0.7,6.7 -0.9,10 -0.1,1.9 0,3.7 -0.1,5.6 -0.4,6.4 -0.9,12.9 -1.3,19.3 -0.3,4 -0.5,7.9 -0.9,11.9 -0.4,3.6 0.3,4.8 3.8,5.4 4.3,0.8 13,1.5 13,1.4 h 5.2 c 1,0 1.4,-0.3 1,-1.5 -2,-5.7 -4,-11.5 -5.8,-17.3 -1,-3.1 -1.1,-6.5 -2.5,-9.3 z m -15,129.3 c -1.8,-0.8 -3.6,-1.6 -5.5,-1.9 -4.4,-0.8 -22.3,-5.1 -24.6,-5.8 -6.5,-2 -13.1,-4 -19.6,-6 -5,-1.6 -9.8,-3.3 -14.8,-4.9 -2.8,-0.9 -5.7,-1.6 -8.5,-2.6 -4,-1.4 -8,-2.9 -12.1,-4.3 -1,-0.4 -2.1,-0.7 -3.1,-0.9 -7.6,-1.8 -15.3,-3.5 -22.9,-5.3 -2.1,-0.5 -4.1,-1.3 -6.2,-2 -2,-0.7 -3.9,-1.4 -5.9,-2 -0.8,-0.2 -1.5,-0.4 -2.3,-0.6 -0.1,0.7 -0.4,1.5 -0.4,2.2 0.1,1 0.2,2.1 0.6,2.9 0.3,0.6 1.1,0.9 1.8,1.2 2.9,0.9 5.8,1.7 8.7,2.7 3.2,1 6.3,2.2 9.5,3.1 3,0.9 6.1,1.4 9,2.3 4.8,1.6 9.5,3.5 14.3,5.1 4.4,1.5 8.8,2.6 13.2,3.9 7.4,2.2 14.9,4.4 22.3,6.7 5.5,1.7 11,3.5 16.5,5.1 3.2,0.9 6.5,1.3 9.8,2.2 6.2,1.6 12.4,3.2 18.7,4 1.1,0.1 1.6,-0.1 1.9,-1.1 0.2,-0.7 0.1,-3.8 -0.4,-4 z m -6.1,-6.3 c -0.1,1.1 0.3,1.8 1.5,1.9 1.5,0.2 3.1,0.5 4.6,0.6 1.2,0.1 1.4,-0.7 1.4,-1.7 0,-5.9 0,-11.8 0.2,-17.7 0.3,-7.3 0.9,-14.6 1.3,-21.9 0.3,-5.1 0.6,-10.3 0.9,-15.4 0.2,-3.9 0.3,-7.8 0.3,-11.7 0,-3 -0.4,-5.9 -0.2,-8.9 0.5,-9.4 1.2,-18.8 1.8,-28.2 0.6,-8.8 1.1,-17.6 1.6,-26.4 0.3,-5.4 0.5,-10.8 0.8,-16.2 0.1,-2.1 0.3,-4.3 0.3,-6.4 0,-3.9 -0.2,-7.8 -0.4,-11.7 0,-0.2 -0.2,-0.4 -0.3,-0.6 -0.2,0.2 -0.4,0.4 -0.5,0.7 -0.1,0.4 0,0.8 0,1.2 0.1,6.6 -3,30.8 -3.2,36.5 -0.3,8 -2.5,15.9 -2.6,24 0,0.2 -0.1,0.5 -0.1,0.7 -0.3,2.2 -0.6,4.3 -0.8,6.5 -0.7,7.2 -1.3,14.4 -2.1,21.6 -0.6,5.6 -1.4,11.1 -2.2,16.7 -0.4,2.9 -0.9,5.7 -1.1,8.6 -0.2,2.2 -0.2,4.4 -0.3,6.6 -0.3,7.5 -0.6,14.9 -0.8,22.4 -0.2,4.9 0,17.4 -0.1,18.8 z M 541.3,99.6 c -5.1,0.1 -9.9,4.5 -10.6,9.2 -0.4,3.1 -0.4,3.1 2.4,3.9 4.7,1.4 9.3,2.8 14.1,4.1 8.6,2.3 17.2,4.6 26,5.7 6.3,0.8 12.7,1.4 19,2.4 6,0.9 11.9,2.3 17.9,3.4 5.2,1 10.4,1.8 15.7,2.7 6,1 12,1.9 18,2.8 4.1,0.6 8.3,1.2 12.4,2 1.3,0.2 1.2,-0.2 1.1,-1.2 -0.4,-3 -0.4,-6 0.8,-8.8 1,-2.6 1.1,-2.7 -1.5,-3.5 -4.4,-1.3 -8.9,-2.4 -13.3,-3.5 -3.6,-0.9 -7.3,-1.7 -10.9,-2.5 -2.8,-0.6 -5.8,-0.5 -8.5,-1.5 -6.8,-2.4 -14,-2.5 -21,-3.6 -4.1,-0.7 -8.3,-1.4 -12.4,-2.1 -7.8,-1.3 -15.7,-2.7 -23.5,-4 -3.3,-0.5 -6.7,-0.6 -9.9,-1.4 -4.8,-1.1 -9.6,-2.7 -14.4,-4.1 -0.7,0.1 -1.3,0 -1.4,0 z m -12.1,167.9 c 0.4,4.6 0.7,9.2 1.1,13.8 0.1,1.2 0.1,2.6 1.8,3.1 4.8,1.4 9.4,3.2 14.2,4.6 4.2,1.2 8.4,2.5 12.7,3.2 5.7,0.9 11,2.8 16.4,4.5 2.1,0.7 4.3,1.4 6.4,2.1 2,0.6 4.1,1 6,1.7 5.3,1.8 10.5,3.7 15.8,5.5 4.8,1.6 9.6,3.2 14.4,4.7 2.8,0.9 5.6,1.8 8.4,2.6 2.9,0.7 5.8,1.2 8.7,1.8 1.7,0.4 3.3,0.9 5,1.4 1,0.3 1.5,0 1.6,-1 0.1,-5 0.2,-10 0.3,-15 0,-1.5 -0.1,-3.1 -0.1,-4.6 0.1,-4.6 0.3,-9.2 0.5,-13.8 0.2,-3.8 0.3,-7.6 0.6,-11.3 0.2,-2.7 0.9,-5.4 1.3,-8.1 1.3,-9.5 2.5,-19.1 3.7,-28.7 0.3,-2.3 1.7,-19.3 2.7,-25.4 0.4,-2.2 4.3,-52.4 4.5,-54.2 0.5,-4.1 1.1,-8.1 2,-12.2 0.3,-1.4 -0.1,-1.9 -1.2,-2.2 -1.9,-0.4 -3.8,-0.9 -5.7,-1.2 -6.9,-1.1 -13.8,-2.1 -20.8,-3.2 -2.5,-0.4 -5,-1.2 -7.6,-1.5 -4.5,-0.6 -9.3,-0.5 -13.6,-1.7 -8.2,-2.3 -16.6,-3.5 -25,-4.9 -6.8,-1.2 -13.6,-2.3 -20.4,-3.2 -5.6,-0.7 -11,-1.9 -16.4,-3.4 -4.6,-1.2 -9.2,-2.3 -13.8,-3.5 -1.6,-0.4 -3.7,0.6 -3.7,1.8 0.2,5 0.6,10 0.6,15 0,5.1 -0.5,10.2 -0.6,15.4 -0.2,6.6 -0.3,13.2 -0.4,19.8 -0.1,5.9 -0.3,11.8 -0.5,17.7 -0.1,3.3 -0.5,6.7 -0.5,10 0,6.2 0.2,12.5 0.3,18.7 0.1,6.8 0.2,13.6 0.4,20.3 0.2,5.4 0.6,10.9 0.7,16.3 -0.1,5 0.1,15.1 0.2,15.1 z m 13.7,132 c 0.2,-9.6 0.3,-19.2 0.7,-28.7 0.3,-6.9 1.3,-27.9 1.2,-31.4 -0.1,-6.3 -0.4,-12.6 -0.4,-18.9 0,-4.4 0.3,-8.7 0.3,-13.1 0,-1.6 -0.3,-3.2 -0.6,-4.8 -0.1,-0.3 -0.6,-0.7 -1,-0.8 -6,-1.8 -12.1,-3.7 -18.1,-5.4 -2.5,-0.7 -3.1,-1.4 -3.1,-4 0,-2.3 -0.1,-4.6 -0.1,-6.9 0,-0.5 0,-1.1 0,-1.6 0.1,-1.4 0.7,-2.2 2.2,-1.9 1.1,0.2 2.3,0.1 3.5,0.2 0,-1.1 0,-2.2 -0.1,-3.4 -0.1,-1.5 -0.4,-2.9 -0.5,-4.4 -0.2,-3.5 -0.3,-7 -0.5,-10.5 -0.3,-7.2 -0.5,-14.5 -0.8,-21.8 -0.1,-4.4 -0.3,-8.9 -0.3,-13.3 -0.1,-12.1 -0.3,-24.2 -0.2,-36.3 0,-5.1 0.6,-10.1 0.7,-15.2 0.1,-6.1 0,-12.3 0,-18.4 0,-3.4 0.3,-6.8 0.3,-10.2 0.1,-5.3 -0.1,-10.6 0,-15.9 0.2,-6 -1.2,-11.9 0.2,-17.9 0.3,-1.5 -0.1,-3.1 0.2,-4.6 0.7,-4.8 3,-8.5 7.2,-11.4 3.1,-2.1 5.9,-3.5 9.6,-3 0.3,0 0.7,0 0.9,0.1 3.1,2.4 7.1,2.5 10.7,3.4 4.7,1.2 9.5,1.6 14.3,2.5 3.7,0.6 7.5,1.4 11.2,2 3.7,0.6 7.4,1.2 11.1,1.8 6.3,1 12.6,2 18.9,3.1 6.8,1.2 13.6,2.9 20.4,3.8 5.4,0.7 10.5,2.5 15.8,3.7 4.5,1 8.9,2.3 13.3,3.4 0.2,0.1 0.5,0.1 0.7,0.1 4.1,-1.5 5.2,1.7 6.6,4.2 2.2,4 2.3,8.3 0.7,12.5 -0.7,1.9 -1.6,3.9 -4.2,4.2 -1.4,0.1 -1.4,1.4 -1.4,2.3 0.1,4.4 0.3,8.8 1,13.2 0.7,4.8 0.8,9.6 1.4,14.4 0.4,3.2 1.1,6.4 1.7,9.6 0.8,4 1.6,7.9 2.5,11.9 1.1,5 2.1,10 3.5,15 2.2,8 4.4,15.9 6.9,23.8 1.7,5.3 3.9,10.5 5.9,15.7 0.1,0.4 0.3,0.7 0.5,1.1 1.4,3.9 1.2,4.1 -2.9,4.1 -0.7,0 -1.5,0.3 -2.2,0.6 -5.9,2.5 -11.3,5.7 -15.9,10.4 -1.9,2 -4.4,3.5 -5.7,6 -0.4,0.8 -0.8,1.7 -0.8,2.6 -0.4,6.1 -0.6,12.2 -1,18.2 -0.2,4 -0.7,8.1 -0.9,12.1 -0.2,3.6 0,7.2 -0.1,10.7 -0.1,5.7 -0.3,11.5 -0.5,17.2 -0.1,3.2 -0.6,3.5 -3.7,2.8 -6,-1.5 -12.1,-3.1 -18.1,-4.6 -0.5,-0.1 -1,-0.1 -1.6,-0.1 0.3,0.5 0.5,1.1 0.8,1.5 4.1,5.4 8.1,10.9 12.2,16.2 4.8,6.2 9.7,12.2 14.5,18.3 2.7,3.5 5.2,7.1 7.9,10.6 1.8,2.4 3.6,4.7 5.6,6.9 3.9,4.5 7.8,8.9 11.8,13.3 0.9,1 1.1,1.8 0.5,2.9 -0.6,1 -1.3,1.3 -2.2,0.4 -3.7,-3.8 -7.6,-7.5 -11,-11.5 -4.5,-5.3 -8.7,-11 -13,-16.5 -4.8,-6.2 -9.5,-12.5 -14.3,-18.8 -5,-6.6 -10.2,-13.1 -15.2,-19.6 -0.3,-0.4 -0.6,-0.8 -0.9,-1.1 -0.3,-0.3 -0.8,-0.4 -1.2,-0.6 -0.1,0.4 -0.3,0.9 -0.2,1.3 0.1,3.3 0.3,6.5 0.4,9.8 0.2,5 0.3,10.1 0.5,15.1 0.3,5.6 0.7,11.2 1,16.8 0.4,6.9 1.8,33.5 2.1,39.9 0.1,1.3 0.4,7.8 0.7,9.7 0.2,1.3 -0.1,2.2 -1.4,2.5 -1.6,0.4 -1.6,-0.8 -1.7,-1.8 -0.3,-6.3 -0.6,-12.6 -1,-18.9 -0.3,-4.9 -0.6,-9.8 -0.8,-14.7 -0.2,-5.5 -1.5,-23.3 -1.7,-26.8 -0.2,-4 -1.1,-24.6 -1.5,-30.8 -0.1,-1.5 -0.2,-3.1 -0.4,-4.6 -0.1,-1.3 -0.7,-2 -2.1,-2.3 -7.5,-2 -15,-4.2 -22.5,-6.3 -1.5,-0.4 -2.9,-1.2 -4.4,-1.6 -3.7,-1 -7.4,-1.9 -11,-2.9 -3.8,-1.1 -7.7,-2.2 -11.4,-3.5 -4.6,-1.5 -9.1,-3.3 -13.7,-4.8 -2.8,-0.9 -5.8,-1.3 -8.6,-2 -1.2,-0.3 -1.6,0.1 -1.7,1.2 -0.3,4 -0.8,7.9 -0.8,11.9 -0.1,5.9 0.4,11.8 0.3,17.7 -0.2,9.4 -0.8,18.8 -1.2,28.3 -0.2,5.8 -1.2,32 -1.4,39.3 -0.1,2.6 0,5.2 0,7.7 0,0.8 0.4,2.1 -1.1,2.1 -1.3,0 -1.3,-1.1 -1.3,-2.1 0,-3.4 0,-6.9 0,-10.4 z"
               id="path868"
               inkscape:connector-curvature="0"
               style="fill:#181715" />
            <path
               class="st2"
               d="m 464,164.9 c 1.1,-0.3 2.3,-0.5 3.4,-0.8 1.7,-0.5 2,-1.3 1.2,-2.9 -0.6,-1.2 -1.3,-2.3 -1.9,-3.5 -0.4,-0.7 -0.9,-1 -1.3,-0.1 -0.9,1.9 -1.6,3.9 -2.5,5.8 -0.6,1.2 0,1.5 1.1,1.5 z m -2,8.6 c 1.3,7 2.6,14 3.9,21 0.6,2.9 1.3,5.8 1.9,8.7 0.2,0.9 0.4,1.8 0.6,2.7 0.7,-0.5 1.4,-0.9 2.1,-1.4 1.1,-0.9 1.9,-0.4 2.2,0 0.4,0.4 0.8,0.8 0.1,2.1 -0.7,1.2 -0.9,1.5 -1,1.8 0.4,0 0.8,0.1 1.1,0 1.7,-0.5 1.9,-1.8 1.6,-3.4 -0.4,-2.2 -1,-4.4 -1.1,-6.6 -0.3,-3.3 -0.1,-6.7 -0.5,-10 -0.6,-5.2 -1.4,-10.3 -2.1,-15.4 -0.2,-1.9 -0.4,-3.7 -0.5,-5.6 -0.1,-1.2 -0.5,-1.7 -1.8,-1.3 -1.8,0.6 -3.5,1.1 -5.3,1.6 -1.2,0.3 -1.7,0.9 -1.3,2.2 0.3,1.2 0.3,3.6 0.1,3.6 z m -230.6,73.9 c 2.5,-0.4 4.4,-0.5 6.2,-1 3.4,-0.8 6.8,-1.8 10.1,-2.8 2.1,-0.6 4.2,-1.4 6.3,-2.2 0.4,-0.1 0.7,-0.3 1.1,-0.4 2.8,-0.7 5.6,-1.4 8.3,-2.2 2.9,-0.9 5.8,-2.1 8.7,-3 2.4,-0.8 4.7,-1.5 7.1,-2 5.5,-1.2 11.2,-1.9 16.6,-3.6 3.1,-0.9 6.1,-1.6 9.2,-2.2 3.1,-0.6 6.2,-1.8 9.3,-2.2 8.3,-1.1 36.2,-6.7 41.4,-7.9 5.6,-1.2 11.2,-2.2 16.8,-3.2 4.4,-0.8 8.9,-1.6 13.3,-2.5 0.3,-0.1 0.6,-0.3 0.9,-0.5 -0.1,-0.2 -0.2,-0.5 -0.4,-0.6 -2.7,-1.1 -4.4,-4.9 -8.2,-2.9 -0.2,0.1 -0.6,-0.1 -0.9,0 -1.8,0.3 -3.5,0.4 -5.3,0.8 -4.5,1 -9,2.3 -13.6,3.2 -4.6,0.9 -9.2,1.5 -13.7,2.5 -5.6,1.2 -11.4,1.2 -16.9,3.2 -1.3,0.5 -2.7,0.7 -4.1,1 -5.1,1.2 -10.3,2.3 -15.4,3.6 -2.9,0.7 -5.8,1.7 -8.7,2.5 -5.3,1.4 -10.5,2.6 -15.8,4 -2.6,0.7 -5.1,1.5 -7.7,2.1 -3.5,0.8 -7,1.4 -10.5,2.4 -7.6,2 -15.2,4.1 -22.8,6.2 -2.1,0.6 -4.2,1.2 -6.2,1.9 -1.8,0.6 -3.4,1.5 -5.2,2 -2.3,0.6 -4.8,0.9 -7.1,1.3 -0.3,0 -0.5,0.3 -0.7,0.5 0.1,0.1 0.2,0.2 0.3,0.2 2.8,0.6 5.4,1.3 7.6,1.8 z m -2.2,118.5 c 0.8,9 1.4,18 2.2,27 0.2,2 0.6,4.3 1.6,5.9 0.8,1.2 2.8,1.7 4.3,2.4 1,0.5 2,0.7 3,1.1 -0.1,-1.1 -0.2,-2.3 -0.2,-3.4 -0.4,-7.7 -0.9,-15.4 -1.3,-23 -0.5,-8.2 -2.1,-16.2 -1.9,-24.4 0,-1.7 -0.3,-3.4 -0.2,-5.1 0.2,-2.9 -1.9,-17.2 -2,-21.6 -0.2,-7.3 -0.3,-14.7 -0.5,-22 -0.1,-5 -0.2,-10 -0.6,-15 -0.3,-4.5 -0.8,-9 -1.4,-13.5 -0.4,-3 -1.3,-6 -1.8,-9 -0.6,-3.4 -0.8,-6.9 -1.5,-10.3 -0.3,-1.6 -1.1,-3.4 -2.3,-4.4 -1.4,-1.2 -3.5,-1.5 -5.3,-2.3 -0.9,-0.4 -1.1,0 -1,0.9 0.4,4.3 2,36.7 2.3,43.2 0.3,6 0.9,11.9 1.3,17.9 0.2,2.5 0.3,5.1 0.5,7.6 0,0.4 0.3,0.9 0.5,1.3 0.4,-0.3 0.8,-0.5 1,-0.8 0.6,-1.1 1.2,-2.3 1.7,-3.5 0.5,-1.5 0.8,-3.2 1.3,-4.8 0.3,-1.1 1,-2 2.4,-1.8 1.3,0.2 2.2,0.9 2,2.4 -0.1,0.9 -0.5,1.9 -1,2.7 -1,1.7 -2.2,3.2 -3.2,4.8 -0.9,1.5 -1.5,3.3 -2.6,4.7 -1,1.3 -1.2,2.6 -1,4.1 0.3,2.5 0.6,4.9 0.8,7.4 0.2,2.3 0.3,4.5 0.5,6.8 0.5,4.5 2.1,21.1 2.4,24.7 z m 15.3,37.9 c 0.2,1.2 0.5,1.6 1.8,1.3 1,-0.3 2.1,-0.3 3.2,-0.4 5.7,-0.5 11.5,-0.8 17.2,-1.4 4,-0.4 8,-1 12.1,-1.5 3.8,-0.4 7.6,-0.6 11.4,-1.1 4.5,-0.6 9,-1.6 13.6,-2.3 9.1,-1.3 18.1,-2.7 27.1,-4.9 6.9,-1.7 13.8,-3.1 20.8,-4.4 7.7,-1.4 15.4,-2.8 23.2,-3.8 6,-0.8 12.1,-0.9 18.2,-1.5 4.9,-0.5 9.7,-1.4 14.5,-2.3 2.3,-0.4 3.3,-1.9 2.7,-4 -1.2,-4.4 -1.2,-8.9 -1.5,-13.4 -0.4,-5.9 -1.5,-11.8 -2.1,-17.6 -0.7,-7.3 -1.3,-14.6 -1.8,-21.9 -0.6,-8.5 -1,-16.9 -1.9,-25.4 -0.7,-7.4 -2,-14.6 -2.8,-22 -0.7,-6.7 -1,-13.4 -1.5,-20.1 -0.3,-3.2 -0.6,-6.4 -1,-9.5 -0.6,-4.5 -1.5,-8.9 -2,-13.4 -0.6,-5.7 -2,-11.3 -3.7,-16.8 -0.2,-0.7 -1.4,-1.6 -2,-1.5 -4.9,0.6 -9.9,1.3 -14.8,2.1 -4.1,0.7 -8.1,1.6 -12.1,2.4 -6.2,1.2 -12.4,2.2 -18.6,3.4 -3.4,0.6 -6.9,1.4 -10.3,2 -4.5,0.8 -9.1,1.4 -13.6,2.3 -5,1 -10,2.1 -15.1,3.3 -6.5,1.5 -13,3 -19.5,4.5 -0.3,0.1 -0.6,0.1 -0.9,0.2 -3.8,0.9 -7.6,1.6 -11.4,2.7 -4.7,1.4 -9.4,3 -14.1,4.6 -4.2,1.4 -8.6,2 -12.7,3.8 -3.5,1.5 -7.3,2.3 -10.9,3.3 -1.8,0.5 -2.8,1.6 -2.8,3.5 0.1,2.5 0.1,5.1 0.5,7.6 0.8,6.3 1.8,12.6 2.6,19 0.6,5.1 1,10.2 1.4,15.3 0.3,4.6 0.3,9.2 0.5,13.8 0.2,3.2 0.7,6.4 0.8,9.5 0.2,5 -0.1,10 0.2,14.9 0.3,7.3 0.9,14.6 1.3,21.9 0.1,2.1 -0.1,4.2 0.1,6.3 0.4,6.5 3.3,37.9 3.9,41.5 z M 473.3,211.5 c -0.7,-0.1 -1.9,-0.2 -3.1,-0.2 -0.4,0 -0.9,0.2 -1.2,0.4 -1.5,1.9 -3.1,3.8 -4.5,5.9 -2.1,3.1 -4,6.2 -6,9.3 -2.9,4.4 -5.9,8.8 -8.8,13.2 -1.7,2.6 -3.4,5.4 -5.1,8 -0.7,1.1 -1.7,2.1 -2.4,3.2 -3,4.7 -6.1,9.4 -9.1,14.1 -0.9,1.3 -1.5,2.8 -2.4,4.2 -1.8,2.6 -3.7,5.2 -5.6,7.8 -2.4,3.5 -4.8,7.1 -7.3,10.6 -1.7,2.5 -3.5,4.9 -5.3,7.3 -1.8,2.4 -3.9,4.7 -5.4,7.2 -0.7,1.1 -0.6,2.8 -0.5,4.2 0.3,5 0.9,10 1.3,15.1 0.5,6.4 0.9,12.7 1.5,19.1 0.6,6.6 1.5,13.1 2.3,19.7 0.5,4.6 0.6,9.3 1.6,13.8 0.6,2.7 0,5.2 0,7.8 0,0.6 -1.2,1.7 -2,1.8 -3.6,0.8 -7.3,1.5 -11,1.9 -8.7,1 -17.3,1.9 -26,2.9 -4.8,0.6 -9.5,1.5 -14.3,2.3 -2.5,0.4 -4.9,0.6 -7.4,0.9 -1.1,0.1 -1.6,0.6 -1.6,1.8 0.1,3.5 0,7 0.2,10.5 0.2,3.4 0.5,6.8 0.8,10.2 0.5,6.6 1,13.3 1.5,20 0.4,5.7 0.3,10.6 0.7,14.7 1.1,6.1 4.9,12 6.3,14.2 2.1,3.2 4.5,6.3 6.7,9.4 0.4,0.6 0.8,1.4 0.9,2.1 0.1,0.5 -0.3,1.1 -0.5,1.6 -0.5,-0.2 -1.3,-0.2 -1.6,-0.6 -2,-2.3 -3.9,-4.7 -5.7,-7.1 -2.4,-3.2 -4.8,-6.5 -7.2,-9.7 -0.3,-0.4 -0.6,-0.8 -0.6,-1.2 -0.6,-4.1 -1.3,-8.3 -1.8,-12.4 -0.2,-1.3 -1.4,-22.3 -1.6,-26.6 -0.4,-5.7 -1.5,-21.3 -1.8,-23.8 -0.2,-2.3 -0.3,-2.2 -2.4,-1.7 -7.1,1.6 -14.1,3.1 -21.2,4.7 -3.2,0.7 -6.3,1.5 -9.6,2.1 -2.8,0.5 -5.7,0.7 -8.6,1.2 -2.6,0.4 -5.2,0.9 -7.8,1.3 -1.1,0.2 -1.3,0.5 -1,1.7 0.7,2.1 1.1,4.4 1.6,6.6 0.8,3.7 1.6,7.4 2.3,11.1 0.4,2.2 0.5,4.6 0.7,6.8 0.5,4.3 1,8.6 1.6,12.9 0.5,4.2 1.1,8.5 1.7,12.7 0.3,1.8 0.9,3.5 1.5,5.1 0.6,1.7 0.8,3.1 -0.3,4.8 -1,1.5 -1.3,3.5 -1.9,5.3 -1.2,3.7 -3.2,9.2 -3.7,11.1 -0.5,1.8 -3.1,1 -2.6,-1 0.5,-2 1.5,-3.9 2.1,-5.9 1.1,-4.1 2.4,-8.2 3.1,-12.4 0.3,-2.1 -0.7,-4.4 -0.9,-6.6 -0.8,-6.4 -1.6,-12.8 -2.5,-19.2 -0.8,-5.5 -1.5,-11 -2.5,-16.4 -0.8,-4.2 -2,-8.3 -3.2,-12.4 -1,-3.4 -1.5,-3.5 -5,-3 -5.4,0.9 -10.8,1.4 -16.2,2.1 -5.9,0.7 -11.8,1.5 -17.7,2.1 -2.8,0.3 -5.7,0.4 -8.6,0.6 -0.7,0 -1.5,0.2 -2.2,0.1 -1,-0.1 -2.2,-0.2 -2.8,-0.8 -1.8,-2.2 -10.3,-5.5 -12.1,-6.2 -0.6,-0.2 -1.2,-0.9 -1.3,-1.5 -0.3,-1.4 -0.3,-2.9 -0.3,-4.3 -0.1,-1.9 -0.1,-3.9 -0.2,-5.8 -0.3,-4.5 -0.5,-9 -1,-13.5 -0.4,-4 -1,-8 -1.5,-12 -0.1,-0.8 0,-1.6 -0.1,-2.3 -0.6,-8.1 -1.2,-16.1 -1.8,-24.2 -0.2,-2.2 0,-4.4 -0.1,-6.5 0,-0.5 -0.2,-1 -0.4,-1.4 -0.3,0.4 -0.7,0.8 -1,1.2 -2.5,5 -5.1,10 -7.6,15 -3.2,6.6 -6.2,13.2 -9.5,19.7 -2.4,4.7 -5.1,9.2 -7.8,13.8 -1.6,2.7 -3.4,5.2 -4.9,7.9 -0.6,1 -0.7,2.2 -1.3,3.2 -0.6,1 -1.5,1.9 -2.5,2.5 -0.4,0.2 -1.8,-0.3 -2,-0.8 -0.2,-0.6 0,-1.7 0.4,-2.3 2.5,-3.8 5.3,-7.3 7.7,-11.2 2.8,-4.5 5.2,-9.2 7.7,-13.9 1.4,-2.5 2.7,-5 4,-7.6 1.8,-3.6 3.4,-7.3 5.2,-11 2.2,-4.6 4.5,-9.2 6.9,-13.8 0.9,-1.9 2.2,-3.6 3,-5.5 0.6,-1.5 1.1,-3.3 1,-4.9 -0.2,-3.6 -1,-7.1 -1.3,-10.7 -0.3,-3.9 -0.5,-7.8 -0.6,-11.6 -0.1,-5.2 -3.2,-49.9 -3.9,-52.9 -0.5,-2.1 0.6,-4.3 2.8,-4.9 2.1,-0.6 4.3,-0.7 6.4,-1.2 3.3,-0.8 6.6,-1.7 9.9,-2.7 3.6,-1 7.1,-2.2 10.7,-3.2 4.3,-1.2 8.7,-2.2 13.1,-3.3 4,-1 8,-2.1 12,-3.1 3.2,-0.8 6.4,-1.4 9.5,-2.3 7.1,-1.9 14.1,-3.9 21.2,-5.7 6.5,-1.7 13,-3.3 19.5,-4.7 4.7,-1 9.5,-1.7 14.2,-2.7 3,-0.6 5.9,-1.4 8.9,-2 4.6,-0.8 9.2,-1.4 13.8,-2.3 4.5,-0.9 8.8,-2.3 13.3,-3.4 2,-0.5 4.1,-0.7 6.2,-1.1 3.4,-0.7 6.2,1.1 9,2.5 2.5,1.2 5,2.5 7.6,3.7 1.1,0.5 1.3,1.3 1.4,2.5 0.1,2 0.4,4 0.7,6 0.7,4.4 1.6,8.8 2.3,13.2 0.3,2 0.7,4.1 0.9,6.2 0.2,1.5 0,2.9 0.2,4.4 0.7,4.4 1.5,8.8 2.1,13.2 0.4,3.4 0.4,6.9 0.7,10.3 0.7,7.1 1.5,14.2 2.3,21.4 0.3,2.3 0.7,4.6 1,6.9 0.1,0.5 0.4,1 0.6,1.4 0.5,-0.3 1,-0.4 1.3,-0.8 2.4,-3 4.8,-6.1 7.2,-9.2 2.3,-3.1 4.5,-6.2 6.7,-9.3 3,-4.3 6,-8.5 8.9,-12.9 4.4,-6.7 8.6,-13.6 13,-20.3 3.2,-4.8 6.6,-9.4 9.8,-14.3 2,-3 3.6,-6.2 5.5,-9.3 1.4,-2.4 2.8,-4.9 4.5,-7 1.9,-2.4 2.1,-4.9 1.6,-7.6 -2.2,-12.5 -4.5,-25.1 -6.7,-37.6 -0.4,-2 0.6,-3.6 1.4,-5.3 1.2,-2.6 2.4,-5.2 3.7,-7.8 1.5,-4 3.4,-4 5.1,-0.8 1.8,2.5 3.4,5.2 5,7.9 0.4,0.7 0.6,1.7 0.5,2.5 -0.4,5.9 2.2,24.7 2.6,28.3 0.6,5.1 1.4,10.1 2.1,15.1 0.4,2.8 0,3.4 -2.9,3.5 -0.4,-0.1 -1.1,-0.1 -2.2,-0.1 z"
               id="path870"
               inkscape:connector-curvature="0"
               style="fill:#181715" />
            <path
               class="st2"
               d="m 590.4,198.7 c 0,1.5 0.4,3.3 0.6,3.7 0.3,-0.5 2.3,-3.3 2.6,-4.5 0.3,-1.1 -0.2,-2 -1.2,-2.3 -1.1,-0.4 -2,1.5 -2,3.1 z m -11,1.8 c 0.7,1.7 1.5,3.4 2.3,5.1 0.1,0.3 0.6,0.4 0.9,0.5 0.1,0 0.4,-0.5 0.4,-0.7 -0.4,-1.9 -0.8,-3.8 -1.3,-5.6 -0.1,-0.4 -0.8,-0.7 -1.3,-1 -0.3,0.4 -0.6,1 -1,1.7 z m 7.3,18.5 v 5.6 c 0,0.4 0.3,0.8 0.5,1.2 0.2,-0.4 0.7,-0.8 0.7,-1.2 0.1,-4.3 0.1,-8.7 0.1,-13.1 0,-0.4 -0.5,-0.7 -0.8,-1.1 -0.3,0.5 -0.8,1 -0.8,1.4 0,2.2 0.2,4.2 0.3,7.2 z m 2.3,18.8 c 0.6,-0.1 1.3,-0.1 1.9,-0.1 h 3.9 c -0.1,-1.3 -0.3,-2.6 -0.2,-3.9 0.1,-1.7 -0.5,-2.2 -2.1,-2.1 -4.4,0.2 -8.8,0.2 -13.3,0.4 -0.3,0 -0.9,0.3 -0.9,0.5 -0.2,1.3 -0.4,2.6 -0.4,3.9 0,0.3 0.7,0.7 1.2,0.8 3.3,0.1 6.6,0.3 9.9,0.5 z m -5.7,3 c -0.5,0 -1.1,-0.1 -1.6,-0.1 -4.5,-0.2 -3.8,-0.5 -4.5,4.1 v 0.2 c -0.2,1.1 0.2,1.9 1.3,2 1.2,0.2 9.6,1.2 12.7,1.5 0.8,0.1 2.2,-0.3 2.3,-0.8 0.5,-1.7 0.7,-3.6 0.8,-5.4 0,-0.1 -0.8,-0.4 -1.2,-0.4 -3.3,-0.5 -9.8,-1.2 -9.8,-1.1 z m 24.1,-61.6 c -7.9,-2.4 -19,-3.3 -27.2,-3.8 -4.7,-0.2 -9.3,-0.1 -14,0 -1.6,0 -2.3,1 -2.2,2.6 0.1,2.9 0.2,5.7 0.1,8.6 -0.1,6.8 -0.2,13.6 -0.4,20.4 -0.1,3.2 -0.2,3.1 3.1,3.4 0.6,0 1.2,0.3 1.8,0.4 1.5,0.2 3,0.3 4.5,0.7 1.7,0.3 3.5,0.6 4.9,1.4 0.6,0.4 0.4,2.3 0.4,3.5 0,2.2 0.1,4.5 -0.3,6.7 -0.4,2.2 -0.4,2.5 1.8,2.7 0.8,0.1 1.7,0 2.5,-0.2 0.2,0 0.5,-0.4 0.6,-0.7 0.2,-3.7 0.3,-7.4 0.5,-11 0.1,-1.8 -0.3,-3.3 -2.3,-4.1 -0.8,-0.3 -1.7,-0.6 -2.2,-1.2 -3.2,-3.4 -3.3,-7.5 -2.8,-11.8 0,-0.3 0.4,-0.7 0.6,-1 1.3,-1.4 5.2,-3.1 6.3,-2.4 2.1,1.3 2.4,3.5 2.6,5.7 v 0.7 c 0.1,1.5 0.2,3 0.4,4.4 0,0.4 0.5,0.7 0.7,1 0.3,-0.4 0.8,-0.7 0.8,-1.1 0.2,-2.4 0.1,-4.8 0.4,-7.2 0.1,-1.2 0.6,-2.4 1.2,-3.5 0.9,-1.7 2.7,-2 4.3,-1.4 1.1,0.4 2.6,1.4 2.8,2.4 0.4,1.7 0.2,3.6 -0.4,5.2 -0.9,2.3 -2.4,4.3 -3.6,6.5 -0.4,0.8 -0.8,1.7 -0.9,2.6 -0.1,5.4 -0.1,10.7 0,16.1 0,0.6 1,1.4 1.6,1.6 0.9,0.2 1.6,-0.4 1.5,-1.6 -0.1,-0.9 0,-1.9 0,-2.8 0,-1.9 0,-3.8 0.2,-5.6 0.1,-1.6 1.3,-2.3 2.7,-2.2 3.6,0.3 7.3,0.4 10.9,0.6 1.1,0 1.7,-0.4 1.6,-1.7 -0.1,-1.5 0.2,-3.1 0.3,-4.6 0.7,-7.1 1.7,-26.7 1.7,-28.6 z m -33.6,65.5 c 0.3,-4 0.6,-7.9 0.8,-11.9 0.1,-2.3 0.1,-4.7 0.3,-7 0.1,-2.2 0.4,-4.3 0.7,-6.5 0.3,-2.3 -0.3,-3.4 -2.6,-4 -3.5,-0.9 -6.9,-1.8 -10.4,-2.4 -1.3,-0.2 -1.8,-0.8 -1.8,-2 0.1,-3.1 0.1,-6.2 0.3,-9.3 0.1,-3.8 0.5,-7.6 0.5,-11.4 0,-4.7 -0.2,-9.3 -0.4,-14 -0.1,-3.9 0.4,-4.4 4.4,-4.4 3.8,0 7.6,-0.2 11.4,0 6.4,0.3 12.9,0.4 19.2,1.7 3.5,0.7 7.1,0.6 10.6,1.2 2.6,0.4 5.1,1.2 7.6,2 0.5,0.2 0.9,1.5 0.9,2.2 -0.2,5.3 -0.5,10.6 -0.8,15.9 -0.3,4.6 -0.5,9.2 -0.9,13.8 -0.2,2.7 -0.5,5.5 -0.8,8.2 0,0.4 -0.8,0.9 -1.3,0.9 -2.6,0.2 -5.3,0.3 -8,0.4 -0.5,0 -1.1,-0.1 -1.6,0 -4.6,0.7 -4.4,-0.1 -4.5,5 0,8.8 -0.3,17.5 -0.5,26.3 0,1.8 -1,2.5 -2.7,2.3 -3.8,-0.5 -7.6,-1 -11.3,-1.4 -1.7,-0.2 -3.4,-0.5 -5.1,-0.5 -3.2,0 -3.6,-0.2 -3.8,-3.5 0,-0.5 0,-1.1 0,-1.6 -0.1,0 -0.1,0 -0.2,0 z"
               id="path872"
               inkscape:connector-curvature="0"
               style="fill:#181715" />
            <path
               class="st2"
               d="m 625.9,188.5 c 3.2,0.3 6.1,0.5 9,0.8 0.7,0.1 1.6,0.2 1.9,0.7 0.6,0.8 -0.3,3.3 -1.1,3.3 -3.5,-0.1 -7,-0.4 -10.5,-0.6 -0.9,-0.1 -1.9,-0.2 -2.7,-0.5 -0.5,-0.2 -1.2,-1.1 -1.1,-1.4 0.2,-0.7 0.8,-1.5 1.5,-1.8 1,-0.5 2.1,-0.4 3,-0.5 z"
               id="path874"
               inkscape:connector-curvature="0"
               style="fill:#181715" />
            <path
               class="st2"
               d="m 620.8,161.2 c 1.2,-0.4 1.3,-1.3 0.7,-2.2 -0.5,-0.8 -1,-2.1 -2.3,-1.3 -3.3,2.2 -6.5,4.4 -9.7,6.7 -0.5,0.3 -0.9,1.1 -0.8,1.6 0.1,0.8 -0.5,1.9 1.1,2.5 z"
               id="path876"
               inkscape:connector-curvature="0"
               style="fill:#181715" />
            <path
               class="st2"
               d="m 553,185.7 c -4.9,-0.3 -9.3,-2.4 -13.9,-3.8 -0.4,-0.1 -0.9,-0.8 -0.8,-1.2 0,-0.4 0.5,-1 0.9,-1.2 0.4,-0.2 1.2,-0.3 1.6,-0.1 4,2.1 8.5,2.5 12.7,3.5 0.7,0.2 1.4,0.6 2.1,1 0.3,0.2 0.6,0.8 0.6,1.1 -0.1,0.3 -0.7,0.6 -1,0.6 -0.8,0.2 -1.5,0.1 -2.2,0.1 z"
               id="path878"
               inkscape:connector-curvature="0"
               style="fill:#181715" />
            <path
               class="st2"
               d="m 590.4,159.2 c 0.4,-1.1 0.7,-1.9 1.1,-2.6 1.5,-2.6 3,-5.1 4.6,-7.6 0.4,-0.6 1.4,-1.2 2.2,-1.3 0.5,0 1.4,0.9 1.4,1.5 0,0.7 -0.6,1.4 -1,2.1 -1.3,2.2 -2.7,4.4 -4,6.7 -0.3,0.5 -0.3,1.2 -0.6,1.7 -0.5,0.7 -3.1,0.3 -3.7,-0.5 z"
               id="path880"
               inkscape:connector-curvature="0"
               style="fill:#181715" />
            <path
               class="st2"
               d="m 566.2,150.9 c 0.9,0.8 2,1.6 2.5,2.5 1.3,2.4 2.2,4.9 3.4,7.4 0.7,1.4 0.3,3.1 -1,3.8 -1.4,0.8 -1.8,-0.5 -2.2,-1.3 -0.6,-1.3 -1,-2.8 -1.6,-4.1 -0.7,-1.3 -1.6,-2.5 -2.3,-3.9 -0.4,-0.8 -0.7,-1.7 -0.6,-2.5 0.1,-0.5 1,-2.7 1.8,-1.9 z"
               id="path882"
               inkscape:connector-curvature="0"
               style="fill:#181715" />
            <path
               class="st2"
               d="m 323,323.8 c -0.1,-0.9 -0.3,-1.8 -0.4,-2.8 -0.2,-0.9 0,-1.9 1.1,-1.9 0.8,0 1.7,0.5 2.3,1 0.4,0.3 0.3,1.2 0.3,1.8 0,2.1 -0.1,4.2 0,6.3 0.1,1.7 -0.8,2.4 -2.3,2.7 -6.2,0.9 -12.4,1.9 -18.6,2.7 -5.9,0.8 -11.9,1.3 -17.8,2 -1.8,0.2 -2.8,-0.4 -3.3,-2.1 -0.8,-2.6 -1.7,-5.2 -2.5,-7.8 -0.1,-0.4 -0.3,-1 -0.2,-1.4 0.2,-0.7 0.5,-1.8 1,-2 1.1,-0.5 1.7,0.4 2,1.4 0.8,2.2 1.6,4.4 2.3,6.6 0.3,0.9 0.7,1.1 1.6,1.2 4.9,0.5 9.6,-0.5 14.3,-1.2 5.7,-0.8 11.4,-1.3 17.1,-2 2.2,-0.2 3,-1.4 3.1,-4.5 z"
               id="path884"
               inkscape:connector-curvature="0"
               style="fill:#181715" />
            <path
               class="st2"
               d="m 278.1,284 c -1.5,0.1 -2,-0.9 -2.1,-2.2 -0.1,-1.5 1.1,-2.1 2.3,-2.1 1.5,-0.1 1.8,1.2 2,2.4 0.1,1.5 -1.1,1.8 -2.2,1.9 z"
               id="path886"
               inkscape:connector-curvature="0"
               style="fill:#181715" />
            <path
               class="st2"
               d="m 351.7,272.9 c 0.1,1.9 -1.8,2.6 -2.3,2.4 -0.8,-0.2 -2.4,-1 -2.3,-2.8 0.1,-1.7 1.4,-1.7 2.3,-1.8 0.5,0 2.2,0.3 2.3,2.2 z"
               id="path888"
               inkscape:connector-curvature="0"
               style="fill:#181715" />
          </g>
          <rect
             y="63.117981"
             x="94.582581"
             height="511.29749"
             width="693.08447"
             id="rect1584"
             style="opacity:0.01000001;fill:#ffffff;fill-opacity:0;stroke-width:0.67890197" />
          <rect
             y="31.27894"
             x="138.77927"
             height="498.18729"
             width="556.47656"
             id="rect1588"
             style="opacity:0.01000001;fill:#ffffff;fill-opacity:0;stroke-width:0.67890197" />
        </g>
      </g>
    </g>
  </g>
</svg>
