<?xml version="1.0" encoding="UTF-8" standalone="no"?>
<!-- Created with Inkscape (http://www.inkscape.org/) -->

<svg
   xmlns:osb="http://www.openswatchbook.org/uri/2009/osb"
   xmlns:dc="http://purl.org/dc/elements/1.1/"
   xmlns:cc="http://creativecommons.org/ns#"
   xmlns:rdf="http://www.w3.org/1999/02/22-rdf-syntax-ns#"
   xmlns:svg="http://www.w3.org/2000/svg"
   xmlns="http://www.w3.org/2000/svg"
   xmlns:sodipodi="http://sodipodi.sourceforge.net/DTD/sodipodi-0.dtd"
   xmlns:inkscape="http://www.inkscape.org/namespaces/inkscape"
   width="210mm"
   height="210mm"
   viewBox="0 0 210 210"
   version="1.1"
   id="svg1288"
   sodipodi:docname="sprachen.svg"
   inkscape:export-filename="C:\Users\mikha\OneDrive\Рабочий стол\луизинСайт\images\bitmap.png"
   inkscape:export-xdpi="96"
   inkscape:export-ydpi="96"
   inkscape:version="0.92.4 (5da689c313, 2019-01-14)">
  <defs
     id="defs1282">
    <linearGradient
       id="linearGradient1851"
       osb:paint="solid">
      <stop
         style="stop-color:#05ffff;stop-opacity:1;"
         offset="0"
         id="stop1849" />
    </linearGradient>
  </defs>
  <sodipodi:namedview
     id="base"
     pagecolor="#ffffff"
     bordercolor="#666666"
     borderopacity="1.0"
     inkscape:pageopacity="0.0"
     inkscape:pageshadow="2"
     inkscape:zoom="0.5"
     inkscape:cx="-429.59843"
     inkscape:cy="611.16083"
     inkscape:document-units="mm"
     inkscape:current-layer="layer1"
     showgrid="false"
     inkscape:window-width="1920"
     inkscape:window-height="1017"
     inkscape:window-x="1912"
     inkscape:window-y="-8"
     inkscape:window-maximized="1" />
  <metadata
     id="metadata1285">
    <rdf:RDF>
      <cc:Work
         rdf:about="">
        <dc:format>image/svg+xml</dc:format>
        <dc:type
           rdf:resource="http://purl.org/dc/dcmitype/StillImage" />
        <dc:title></dc:title>
      </cc:Work>
    </rdf:RDF>
  </metadata>
  <g
     inkscape:label="Layer 1"
     inkscape:groupmode="layer"
     id="layer1"
     transform="translate(0,-87)">
    <g
       id="g1917"
       transform="matrix(1.8233764,0,0,1.8280282,-72.714351,-32.228211)">
      <path
         id="path230"
         d="m 97.631247,65.762504 c 31.359253,0 56.877083,25.440965 56.877083,56.877086 0,31.35925 -25.51783,56.87708 -56.877083,56.87708 -31.436118,0 -56.877083,-25.51783 -56.877083,-56.87708 0,-31.436121 25.440965,-56.877086 56.877083,-56.877086 z m 0,5.072821 c 28.592263,0 51.804263,23.135138 51.804263,51.804265 0,28.59226 -23.212,51.80426 -51.804263,51.80426 -28.669124,0 -51.804262,-23.212 -51.804262,-51.80426 0,-28.669127 23.135138,-51.804265 51.804262,-51.804265 z"
         class="fil1"
         inkscape:connector-curvature="0"
         style="stroke-width:0.07686092" />
      <path
         id="path232"
         d="M 131.45005,139.31841 V 159.994 c 9.91506,-10.22251 17.13999,-21.59792 17.06313,-36.43208 -0.61489,-2.61327 -2.15211,-3.30502 -4.68852,-1.99839 -0.3843,2.07525 -1.92152,2.61328 -4.61165,1.53722 -1.53722,-5.07282 -6.45632,-5.99515 -11.52914,-6.76376 2.61327,-2.22897 6.61004,-4.30421 8.68528,0.76861 2.84386,0.84547 4.07363,-0.92233 6.91749,0.84547 1.61407,0.15372 3.15129,0.0769 4.76537,0.23058 -2.45955,-22.366525 -5.38026,-13.3738 -18.21604,-17.75487 -5.22654,-6.533178 -6.45631,-1.921523 -5.91829,9.68448 -3.1513,0.99919 -7.22492,3.84304 -2.61327,9.30017 -13.06636,10.76053 -6.53318,23.51944 10.14564,19.90698 z"
         class="fil1"
         inkscape:connector-curvature="0"
         style="fill:#ffffff;fill-opacity:1;stroke-width:0.07686092" />
      <polygon
         style="fill:#ffffff;fill-opacity:1"
         id="polygon234"
         points="19666,14491 19666,14499 19666,14506 19667,14514 19668,14522 19670,14530 19670,14532 19675,14531 19686,14531 19696,14534 19704,14540 19711,14546 19717,14552 19724,14559 19729,14565 19735,14570 19740,14573 19743,14575 19746,14575 19749,14575 19752,14572 19758,14566 19768,14552 19779,14539 19790,14525 19801,14513 19812,14500 19824,14488 19835,14477 19847,14465 19858,14454 19870,14443 19881,14433 19892,14422 19904,14412 19914,14402 19925,14393 19936,14383 19946,14373 19955,14364 19965,14354 19974,14345 19982,14336 19990,14327 19998,14317 20005,14308 20011,14299 20017,14289 20022,14280 20026,14271 20030,14261 20033,14251 20035,14242 20036,14231 20037,14224 20037,14218 20035,14212 20033,14207 20030,14203 20027,14198 20022,14194 20016,14191 20009,14187 20001,14184 19992,14181 19981,14179 19970,14177 19959,14175 19946,14174 19926,14174 19919,14161 19914,14155 19910,14148 19905,14141 19900,14135 19895,14128 19890,14122 19884,14115 19878,14109 19872,14103 19866,14097 19859,14091 19852,14085 19845,14080 19838,14075 19831,14070 19823,14066 19815,14061 19807,14057 19799,14054 19790,14051 19781,14048 19772,14045 19762,14043 19753,14042 19743,14041 19732,14040 19722,14040 19711,14040 19700,14041 19689,14043 19673,14046 19655,14036 19641,14028 19628,14019 19615,14010 19603,14000 19591,13991 19580,13981 19570,13971 19560,13962 19552,13953 19544,13943 19537,13935 19530,13927 19525,13919 19521,13912 19519,13905 19517,13898 19519,13889 19525,13883 19532,13880 19540,13878 19548,13877 19558,13877 19569,13878 19580,13880 19593,13883 19607,13887 19621,13893 19636,13900 19653,13908 19669,13918 19680,13925 19682,13924 19687,13918 19691,13912 19694,13903 19695,13893 19697,13882 19698,13869 19699,13856 19702,13843 19706,13830 19713,13816 19723,13804 19736,13793 19752,13783 19773,13776 19794,13772 19804,13763 19817,13752 19831,13742 19844,13733 19858,13725 19871,13717 19883,13710 19894,13703 19904,13697 19912,13691 19919,13685 19923,13681 19925,13678 19925,13676 19925,13675 19923,13673 19917,13670 19907,13665 19899,13659 19890,13652 19882,13645 19875,13637 19868,13629 19861,13621 19855,13612 19849,13603 19844,13594 19839,13585 19835,13576 19831,13567 19827,13558 19825,13549 19822,13540 19820,13532 19819,13524 19818,13516 19818,13508 19819,13500 19820,13493 19822,13487 19825,13480 19829,13475 19834,13470 19840,13466 19847,13464 19855,13464 19863,13465 19866,13466 19867,13465 19867,13464 19864,13459 19859,13453 19853,13446 19845,13439 19835,13432 19825,13426 19814,13420 19802,13416 19791,13413 19780,13412 19770,13413 19766,13414 19763,13422 19758,13436 19754,13449 19751,13462 19748,13475 19745,13487 19743,13499 19741,13511 19740,13523 19739,13534 19738,13545 19737,13555 19736,13565 19735,13575 19735,13584 19734,13593 19734,13602 19733,13610 19733,13618 19732,13625 19731,13633 19730,13639 19728,13645 19726,13651 19723,13657 19720,13662 19716,13667 19711,13671 19705,13673 19699,13675 19692,13676 19682,13675 19659,13659 19640,13646 19625,13634 19612,13622 19601,13611 19592,13601 19586,13591 19581,13580 19579,13570 19578,13561 19580,13551 19583,13543 19588,13535 19593,13527 19599,13520 19606,13514 19613,13507 19620,13501 19627,13494 19634,13487 19641,13480 19648,13473 19654,13465 19660,13457 19665,13448 19669,13439 19672,13429 19674,13418 19675,13407 19674,13394 19672,13380 19672,13380 19667,13382 19659,13387 19649,13393 19639,13399 19628,13406 19615,13414 19603,13423 19589,13433 19575,13443 19561,13454 19547,13466 19532,13479 19517,13492 19502,13506 19488,13522 19473,13538 19459,13554 19445,13572 19431,13590 19419,13610 19406,13630 19395,13651 19384,13673 19374,13695 19366,13719 19358,13743 19352,13769 19346,13795 19343,13822 19341,13847 19344,13855 19349,13864 19356,13873 19363,13882 19370,13891 19379,13900 19388,13908 19398,13917 19409,13925 19420,13933 19431,13941 19443,13949 19455,13956 19467,13964 19480,13971 19493,13978 19505,13985 19518,13992 19531,13999 19543,14006 19556,14013 19568,14020 19580,14027 19592,14033 19603,14040 19614,14047 19624,14054 19634,14061 19643,14068 19651,14075 19659,14082 19672,14097 19659,14113 19654,14120 19649,14128 19645,14135 19641,14142 19639,14149 19637,14156 19635,14163 19634,14169 19634,14176 19634,14182 19635,14189 19636,14195 19637,14201 19639,14207 19642,14213 19645,14219 19648,14225 19652,14231 19656,14236 19660,14242 19665,14247 19670,14252 19675,14257 19681,14262 19687,14267 19693,14271 19700,14276 19706,14280 19713,14284 19720,14288 19735,14296 19731,14313 19728,14321 19726,14329 19723,14337 19720,14345 19717,14353 19713,14361 19710,14368 19706,14376 19703,14383 19699,14390 19696,14398 19692,14405 19689,14412 19686,14419 19683,14426 19680,14434 19677,14441 19675,14448 19673,14455 19671,14462 19669,14469 19668,14477 19667,14484 "
         class="fil1"
         transform="matrix(0.07686092,0,0,0.07686092,-1438.127,-949.87792)" />
      <path
         id="path236"
         d="M 82.335923,74.370927 C 95.40228,72.295682 107.162,72.833709 117.84567,76.523033 122.22674,87.667867 104.31815,89.281946 99.783353,96.430012 92.404704,96.660595 97.01636,77.829669 85.564082,77.599086 c -2.152106,-0.07686 -4.15049,-1.844662 -3.228159,-3.228159 z"
         class="fil1"
         inkscape:connector-curvature="0"
         style="fill:#ffffff;fill-opacity:1;stroke-width:0.07686092" />
    </g>
  </g>
</svg>
